…
cdm$mgus_diagnosis |>
  dplyr::select(subject_id, cohort_start_date, time, status) |>
  dplyr::collect()
#> # A tibble: 1,384 × 4
#>    subject_id cohort_start_date  time status
#>         <int> <date>            <dbl>  <dbl>
#>  1          1 1981-01-01           30      1
#>  2          2 1968-01-01           25      1
#>  3          3 1980-01-01           46      1
#>  4          4 1977-01-01           92      1
#>  5          5 1973-01-01            8      1
#>  6          6 1990-01-01            4      1
#>  7          7 1974-01-01          151      1
#>  8          8 1974-01-01            2      1
#>  9         10 1981-01-01          136      1
#> 10         11 1972-01-01            2      1
#> # ℹ 1,374 more rows
…
