Participants contributing to a survival analysis — survivalParticipants • CohortSurvival
…
#> • `subject_id` is numeric but expected integer
#> - Getting survival for target cohort 'mgus_diagnosis' and outcome cohort
#> 'death_cohort'
#> Getting overall estimates
#> Warning: ! 5 casted column in survival_participants (cohort_attrition) as do not match
#>   expected column type:
#> • `number_records` from numeric to integer
#> • `number_subjects` from numeric to integer
#> • `reason_id` from numeric to integer
#> • `excluded_records` from numeric to integer
#> • `excluded_subjects` from numeric to integer
#> Warning: ! 1 column in survival_participants do not match expected column type:
#> • `subject_id` is numeric but expected integer
survivalParticipants(surv)
#> # A tibble: 1,384 × 6
#>    cohort_definition_id subject_id cohort_start_date cohort_end_date exposure_id
#>                   <int>      <dbl> <date>            <date>                <int>
#>  1                    1          1 1981-01-01        1981-01-01                1
#>  2                    1          2 1968-01-01        1968-01-01                1
#>  3                    1          3 1980-01-01        1980-01-01                1
#>  4                    1          4 1977-01-01        1977-01-01                1
#>  5                    1          5 1973-01-01        1973-01-01                1
#>  6                    1          6 1990-01-01        1990-01-01                1
#>  7                    1          7 1974-01-01        1974-01-01                1
#>  8                    1          8 1974-01-01        1974-01-01                1
#>  9                    1         10 1981-01-01        1981-01-01                1
#> 10                    1         11 1972-01-01        1972-01-01                1
#> # ℹ 1,374 more rows
#> # ℹ 1 more variable: outcome_id <int>
…
