Single outcome event of interest • CohortSurvival
…
Summarising participants

If we set returnParticipants as TRUE then we will also be able to
access the individuals that contributed to the analysis.

MGUS_death <- estimateSingleEventSurvival(cdm,
  targetCohortTable = "mgus_diagnosis",
  outcomeCohortTable = "death_cohort",
  returnParticipants = TRUE
)
survivalParticipants(MGUS_death)
#> # A tibble: 1,384 × 6
#>    cohort_definition_id subject_id cohort_start_date cohort_end_date exposure_id
#>                   <int>      <dbl> <date>            <date>                <int>
#>  1                    1          1 1981-01-01        1981-01-01                1
#>  2                    1          2 1968-01-01        1968-01-01                1
#>  3                    1          4 1977-01-01        1977-01-01                1
#>  4                    1          5 1973-01-01        1973-01-01                1
#>  5                    1          6 1990-01-01        1990-01-01                1
#>  6                    1         10 1981-01-01        1981-01-01                1
#>  7                    1         11 1972-01-01        1972-01-01                1
#>  8                    1         12 1983-01-01        1983-01-01                1
#>  9                    1         13 1968-01-01        1968-01-01                1
#> 10                    1         15 1979-01-01        1979-01-01                1
#> # ℹ 1,374 more rows
#> # ℹ 1 more variable: outcome_id <int>
…
