Competing risk survival • CohortSurvival
…
Summarising participants

If we set returnParticipants as TRUE then we will also be able to
access the individuals that contributed to the analysis.

MGUS_death_prog <- estimateCompetingRiskSurvival(cdm,
  targetCohortTable = "mgus_diagnosis",
  outcomeCohortTable = "progression",
  competingOutcomeCohortTable = "death_cohort",
  returnParticipants = TRUE
) 
survivalParticipants(MGUS_death_prog)
#> # A tibble: 1,384 × 7
#>    cohort_definition_id subject_id cohort_start_date cohort_end_date exposure_id
#>                   <int>      <dbl> <date>            <date>                <int>
#>  1                    1         56 1978-01-01        1978-01-01                1
#>  2                    1        124 1974-01-01        1974-01-01                1
#>  3                    1        127 1978-01-01        1978-01-01                1
#>  4                    1        147 1975-01-01        1975-01-01                1
#>  5                    1        163 1966-01-01        1966-01-01                1
#>  6                    1        167 1968-01-01        1968-01-01                1
#>  7                    1        186 1989-01-01        1989-01-01                1
#>  8                    1        195 1981-01-01        1981-01-01                1
#>  9                    1        206 1986-01-01        1986-01-01                1
#> 10                    1        229 1981-01-01        1981-01-01                1
#> # ℹ 1,374 more rows
#> # ℹ 2 more variables: outcome_id <int>, competing_outcome_id <int>
…
